%YAML 1.1
%TAG !u! tag:unity3d.com,2011:
--- !u!1045 &1
EditorBuildSettings:
  m_ObjectHideFlags: 0
  serializedVersion: 2
  m_Scenes:
  - enabled: 1
    path: Assets/Scenes/-99_Menu.unity
  - enabled: 1
    path: Assets/Scenes/1_LevelEscape.unity
  - enabled: 1
    path: Assets/Scenes/99_Credits.unity
